<?xml version="1.0" encoding="UTF-8"?>
<!DOCTYPE plist PUBLIC "-//Apple//DTD PLIST 1.0//EN" "http://www.apple.com/DTDs/PropertyList-1.0.dtd">
<plist version="1.0">
<dict>
	<key>4643A38C8717321A1452526D91D01074</key>
	<array>
		<dict>
			<key>localURL</key>
			<string>/images/skyrE2z.png</string>
			<key>remoteURL</key>
			<string>http://7xrk8u.com1.z0.glb.clouddn.com/skyrE2z.png</string>
		</dict>
		<dict>
			<key>localURL</key>
			<string>/images/2q9KFq3.png</string>
			<key>remoteURL</key>
			<string>http://7xrk8u.com1.z0.glb.clouddn.com/2q9KFq3.png</string>
		</dict>
		<dict>
			<key>localURL</key>
			<string>/images/20161118172613371.</string>
			<key>remoteURL</key>
			<string>http://7xrk8u.com1.z0.glb.clouddn.com/20161118172613371.</string>
		</dict>
		<dict>
			<key>localURL</key>
			<string>/images/04080416_cWwX.png</string>
			<key>remoteURL</key>
			<string>http://7xrk8u.com1.z0.glb.clouddn.com/04080416_cWwX.png</string>
		</dict>
		<dict>
			<key>localURL</key>
			<string>/images/GFa1pF2.png</string>
			<key>remoteURL</key>
			<string>http://7xrk8u.com1.z0.glb.clouddn.com/GFa1pF2.png</string>
		</dict>
		<dict>
			<key>localURL</key>
			<string>/images/20161118140058003.</string>
			<key>remoteURL</key>
			<string>http://7xrk8u.com1.z0.glb.clouddn.com/20161118140058003.</string>
		</dict>
		<dict>
			<key>localURL</key>
			<string>/images/20161118141029984.</string>
			<key>remoteURL</key>
			<string>http://7xrk8u.com1.z0.glb.clouddn.com/20161118141029984.</string>
		</dict>
		<dict>
			<key>localURL</key>
			<string>/images/20161117173803163.</string>
			<key>remoteURL</key>
			<string>http://7xrk8u.com1.z0.glb.clouddn.com/20161117173803163.</string>
		</dict>
		<dict>
			<key>localURL</key>
			<string>/images/04080430_VRI7.png</string>
			<key>remoteURL</key>
			<string>http://7xrk8u.com1.z0.glb.clouddn.com/04080430_VRI7.png</string>
		</dict>
		<dict>
			<key>localURL</key>
			<string>/images/20161118135424082.</string>
			<key>remoteURL</key>
			<string>http://7xrk8u.com1.z0.glb.clouddn.com/20161118135424082.</string>
		</dict>
		<dict>
			<key>localURL</key>
			<string>/images/20161118172842030.</string>
			<key>remoteURL</key>
			<string>http://7xrk8u.com1.z0.glb.clouddn.com/20161118172842030.</string>
		</dict>
		<dict>
			<key>localURL</key>
			<string>/images/20161118110941527.</string>
			<key>remoteURL</key>
			<string>http://7xrk8u.com1.z0.glb.clouddn.com/20161118110941527.</string>
		</dict>
		<dict>
			<key>localURL</key>
			<string>/images/20161118162605822.</string>
			<key>remoteURL</key>
			<string>http://7xrk8u.com1.z0.glb.clouddn.com/20161118162605822.</string>
		</dict>
		<dict>
			<key>localURL</key>
			<string>/images/20161118152944013.</string>
			<key>remoteURL</key>
			<string>http://7xrk8u.com1.z0.glb.clouddn.com/20161118152944013.</string>
		</dict>
		<dict>
			<key>localURL</key>
			<string>/images/20161118152058246.</string>
			<key>remoteURL</key>
			<string>http://7xrk8u.com1.z0.glb.clouddn.com/20161118152058246.</string>
		</dict>
	</array>
	<key>selectedItem</key>
	<string>4643A38C8717321A1452526D91D01074</string>
</dict>
</plist>
